[
  {
    "url": "https://teddit.net"
  },
  {
    "url": "https://teddit.ggc-project.de"
  },
  {
    "url": "https://teddit.kavin.rocks",
    "onion": "http://teddit4w6cmzmj5kimhfcavs7yo5s7alszvsi2khqutqtlaanpcftfyd.onion"
  },
  {
    "url": "https://teddit.zaggy.nl"
  },
  {
    "url": "https://teddit.namazso.eu"
  },
  {
    "url": "https://teddit.nautolan.racing"
  },
  {
    "url": "https://teddit.tinfoil-hat.net"
  },
  {
    "url": "https://teddit.domain.glass"
  },
  {
    "url": "https://snoo.ioens.is",
    "onion": "snoo.ioensistjs7wd746...onion"
  },
  {
    "url": "https://teddit.httpjames.space"
  },
  {
    "url": "",
    "onion": "http://ibarajztopxnuhabfu7fg6gbudynxofbnmvis3ltj6lfx47b6fhrd5qd.onion",
    "i2p": "http://xugoqcf2pftm76vbznx4xuhrzyb5b6zwpizpnw2hysexjdn5l2tq.b32.i2p",
    "notes": "Operated by mdleom.com"
  },
  {
    "url": "https://teddit.alefvanoon.xyz"
  },
  {
    "url": "https://incogsnoo.com",
    "onion": "https://codeberg.org/teddit/teddit/src/branch/main/tedditfyn6idalzso5wam5qd3kdtxoljjhbrbbx34q2xkcisvshuytad.onion",
    "i2p": "http://teddit.i2p"
  },
  {
    "url": "https://teddit.pussthecat.org",
    "notes": "Operated by PussTheCat.org"
  },
  {
    "url": "https://reddit.lol",
    "onion": "http://dawtyi5e2cfyfmoht4izmczi42aa2zwh6wi34zwvc6rzf2acpxhrcrad.onion",
    "i2p": "https://codeberg.org/teddit/teddit/src/branch/main/vzeiwzi7ogwl3ijrfek4fbtwhvamxcpyqoc3s4vcgnhlp54s5clq.b32.i2p",
    "notes": "Operated by https://liberta.casa"
  },
  {
    "url": "https://teddit.sethforprivacy.com",
    "onion": "http://qtpvyiaqhmwccxwzsqubd23xhmmrt75tdyw35kp43w4hvamsgl3x27ad.onion",
    "notes": "For more similar hosted tools, see blog.sethforprivacy.com"
  },
  {
    "url": "https://teddit.totaldarkness.net"
  },
  {
    "url": "https://teddit.adminforge.de",
    "notes": "Operated by https://adminforge.de"
  },
  {
    "url": "https://teddit.bus-hit.me",
    "notes": "Operated by https://bus-hit.me"
  }
]
